<?xml version="1.0" encoding="utf-8"?>
<!-- Generator: Adobe Illustrator 18.1.1, SVG Export Plug-In . SVG Version: 6.00 Build 0)  -->
<!DOCTYPE svg PUBLIC "-//W3C//DTD SVG 1.1//EN" "http://www.w3.org/Graphics/SVG/1.1/DTD/svg11.dtd">
<svg version="1.1" id="Layer_1" xmlns="http://www.w3.org/2000/svg" xmlns:xlink="http://www.w3.org/1999/xlink" x="0px" y="0px"
	 width="464.1573181px" height="299.4440918px" viewBox="-17 101.5559082 464.1573181 299.4440918"
	 enable-background="new -17 101.5559082 464.1573181 299.4440918" xml:space="preserve">
<g>
	<path fill="#4B4A4B" d="M18.2367649,143.4279785c-4.614356,0-8.355689,3.7298279-8.355689,8.3557129
		c0,4.6143494,3.741333,8.3441467,8.355689,8.3441467c4.6262436,0,8.320034-3.7297974,8.320034-8.3441467
		C26.5567989,147.1578064,22.8630085,143.4279785,18.2367649,143.4279785"/>
	<path fill="#4B4A4B" d="M104.7195816,240.4850769h83.6030045v71.2819519h-83.6030045V240.4850769z M19.0039043,189.619812
		l-20.7239075-24.4173279l2.85606-28.9733582l25.0432968-19.4140091l99.6419449,9.6068878l-6.7745819,72.4503098
		l-90.0703735-8.3319397L19.0039043,189.619812z M353.3575134,137.7871704l-213.5634766,0.105896l1.6408844-17.5253372
		c0.1887207-1.9707947-0.4134674-3.9178085-1.6877136-5.4405594c-1.2749481-1.5580521-3.0570221-2.513916-5.0393372-2.7026367
		L24.6688442,101.5796738l-0.731842-0.0237732c-1.6758194,0-3.3163452,0.5661697-4.5790634,1.5811005l-29.9407349,23.1668701
		c-1.6405239,1.2749634-2.6911068,3.1866989-2.891716,5.2403183l-3.4812975,35.3222351
		c-0.2243805,2.0298462,0.4131012,4.0719604,1.7464113,5.6177368L9.538928,201.6577759
		c1.274601,1.4989929,3.0566673,2.4433289,5.0393448,2.6197815l14.3980703,1.3340454v123.5395813h238.7239075
		c-0.9328003-3.9653625-2.2661133-15.6251526-2.3489685-17.3834534h-59.6683197v-71.2826538l94.6519623-0.0160675
		c0,0,28.2746277-19.3693695,53.3409729-19.4868011L353.3575134,137.7871704z"/>
	<path fill="#348C44" d="M413.4284363,281.7679443l-72.2853394,72.3444214l-1.7943115,0.6958008l-1.7936096-0.6958008
		l-20.7710876-20.8063965l-4.1663208-4.1547852l-17.8437195-17.8790283l-0.6965332-1.7114563l0.6965332-1.7467957
		l16.4751282-16.4160461h3.5756531l24.5239563,24.5707703l14.6930237-14.669281l0.5193481-0.5308533l38.9692078-38.9223938
		l1.7230225-0.7311096l1.7943115,0.7311096l16.3807373,16.4167786V281.7679443 M354.1952515,214.9822083l-0.0821228-0.0122375
		l-0.4372253,0.0122375c-25.0548401,0.1174316-47.7376404,10.2083435-64.3899536,26.494751
		c-2.8200378,2.7616882-5.5111389,5.6292725-7.9544678,8.6978455
		c-12.6156616,15.8851624-20.1566467,35.9712219-20.1566467,57.8400879c0,1.2504578,0.1296387,2.5131836,0.1764526,3.7528381
		c0.0828552,1.7583008,0.0943604,3.5166016,0.2478027,5.2518616c0.4134521,4.1302795,1.1683655,8.1662292,2.1011658,12.1315918
		c0.3306274,1.3808289,0.6014709,2.8092346,1.0026855,4.1547852C275.7259521,372.3457642,311.5798035,401,354.1131287,401
		c51.384613,0,93.0441895-41.6595764,93.0441895-92.9851074
		C447.1573181,256.6418152,405.5445557,215.0290527,354.1952515,214.9822083"/>
	<path fill="#4B4A4B" d="M261.5990906,317.0195923"/>
</g>
</svg>
